<svg width="446" height="216" viewBox="0 0 446 216" fill="none" xmlns="http://www.w3.org/2000/svg">
<rect x="0.5" width="445" height="216" rx="8" fill="#EDF2F7"/>
<path d="M121.536 63.345V66.042H112.981V71.987H119.651V74.684H112.981V83.5H109.675V63.345H121.536ZM126.282 65.404C125.682 65.404 125.18 65.201 124.774 64.795C124.368 64.389 124.165 63.8863 124.165 63.287C124.165 62.6877 124.368 62.185 124.774 61.779C125.18 61.373 125.682 61.17 126.282 61.17C126.862 61.17 127.355 61.373 127.761 61.779C128.167 62.185 128.37 62.6877 128.37 63.287C128.37 63.8863 128.167 64.389 127.761 64.795C127.355 65.201 126.862 65.404 126.282 65.404ZM127.906 67.521V83.5H124.6V67.521H127.906ZM135.552 62.04V83.5H132.246V62.04H135.552ZM143.199 62.04V83.5H139.893V62.04H143.199ZM156.754 65.404C156.155 65.404 155.652 65.201 155.246 64.795C154.84 64.389 154.637 63.8863 154.637 63.287C154.637 62.6877 154.84 62.185 155.246 61.779C155.652 61.373 156.155 61.17 156.754 61.17C157.334 61.17 157.827 61.373 158.233 61.779C158.639 62.185 158.842 62.6877 158.842 63.287C158.842 63.8863 158.639 64.389 158.233 64.795C157.827 65.201 157.334 65.404 156.754 65.404ZM158.378 67.521V83.5H155.072V67.521H158.378ZM170.781 67.26C172.038 67.26 173.159 67.521 174.145 68.043C175.15 68.565 175.933 69.3383 176.494 70.363C177.055 71.3877 177.335 72.625 177.335 74.075V83.5H174.058V74.568C174.058 73.1373 173.7 72.045 172.985 71.291C172.27 70.5177 171.293 70.131 170.056 70.131C168.819 70.131 167.833 70.5177 167.098 71.291C166.383 72.045 166.025 73.1373 166.025 74.568V83.5H162.719V67.521H166.025V69.348C166.566 68.6907 167.253 68.1783 168.084 67.811C168.935 67.4437 169.834 67.26 170.781 67.26ZM206.746 84.66V87.734H190.564V84.66H206.746ZM229.884 84.66V87.734H213.702V84.66H229.884ZM253.022 84.66V87.734H236.84V84.66H253.022ZM261.804 69.899C262.365 69.1257 263.129 68.4973 264.095 68.014C265.081 67.5113 266.174 67.26 267.372 67.26C268.784 67.26 270.06 67.5983 271.2 68.275C272.341 68.9517 273.24 69.9183 273.897 71.175C274.555 72.4123 274.883 73.8333 274.883 75.438C274.883 77.0427 274.555 78.483 273.897 79.759C273.24 81.0157 272.331 82.0017 271.171 82.717C270.031 83.413 268.764 83.761 267.372 83.761C266.135 83.761 265.033 83.5193 264.066 83.036C263.119 82.5527 262.365 81.934 261.804 81.18V83.5H258.498V62.04H261.804V69.899ZM271.519 75.438C271.519 74.336 271.287 73.3887 270.823 72.596C270.379 71.784 269.779 71.175 269.025 70.769C268.291 70.3437 267.498 70.131 266.647 70.131C265.816 70.131 265.023 70.3437 264.269 70.769C263.535 71.1943 262.935 71.813 262.471 72.625C262.027 73.437 261.804 74.394 261.804 75.496C261.804 76.598 262.027 77.5647 262.471 78.396C262.935 79.208 263.535 79.8267 264.269 80.252C265.023 80.6773 265.816 80.89 266.647 80.89C267.498 80.89 268.291 80.6773 269.025 80.252C269.779 79.8073 270.379 79.1693 270.823 78.338C271.287 77.5067 271.519 76.54 271.519 75.438ZM281.459 62.04V83.5H278.153V62.04H281.459ZM284.697 75.438C284.697 73.8333 285.026 72.4123 285.683 71.175C286.36 69.9377 287.268 68.9807 288.409 68.304C289.569 67.608 290.845 67.26 292.237 67.26C293.494 67.26 294.586 67.5113 295.514 68.014C296.461 68.4973 297.215 69.1063 297.776 69.841V67.521H301.111V83.5H297.776V81.122C297.215 81.876 296.452 82.5043 295.485 83.007C294.518 83.5097 293.416 83.761 292.179 83.761C290.806 83.761 289.55 83.413 288.409 82.717C287.268 82.0017 286.36 81.0157 285.683 79.759C285.026 78.483 284.697 77.0427 284.697 75.438ZM297.776 75.496C297.776 74.394 297.544 73.437 297.08 72.625C296.635 71.813 296.046 71.1943 295.311 70.769C294.576 70.3437 293.784 70.131 292.933 70.131C292.082 70.131 291.29 70.3437 290.555 70.769C289.82 71.175 289.221 71.784 288.757 72.596C288.312 73.3887 288.09 74.336 288.09 75.438C288.09 76.54 288.312 77.5067 288.757 78.338C289.221 79.1693 289.82 79.8073 290.555 80.252C291.309 80.6773 292.102 80.89 292.933 80.89C293.784 80.89 294.576 80.6773 295.311 80.252C296.046 79.8267 296.635 79.208 297.08 78.396C297.544 77.5647 297.776 76.598 297.776 75.496ZM313.515 67.26C314.772 67.26 315.893 67.521 316.879 68.043C317.885 68.565 318.668 69.3383 319.228 70.363C319.789 71.3877 320.069 72.625 320.069 74.075V83.5H316.792V74.568C316.792 73.1373 316.435 72.045 315.719 71.291C315.004 70.5177 314.028 70.131 312.79 70.131C311.553 70.131 310.567 70.5177 309.832 71.291C309.117 72.045 308.759 73.1373 308.759 74.568V83.5H305.453V67.521H308.759V69.348C309.301 68.6907 309.987 68.1783 310.818 67.811C311.669 67.4437 312.568 67.26 313.515 67.26ZM330.608 75.525L337.974 83.5H333.508L327.592 76.627V83.5H324.286V62.04H327.592V74.51L333.392 67.521H337.974L330.608 75.525Z" fill="#617082"/>
<rect x="25.5" y="114.5" width="395" height="50" rx="8" fill="#CED7E1"/>
<path d="M147.956 132.795V134.562H144.441V146H142.275V134.562H138.741V132.795H147.956ZM159.574 135.531L153.152 150.921H150.91L153.038 145.829L148.915 135.531H151.328L154.273 143.511L157.332 135.531H159.574ZM163.374 137.07C163.742 136.589 164.242 136.183 164.875 135.854C165.509 135.525 166.224 135.36 167.022 135.36C167.934 135.36 168.764 135.588 169.511 136.044C170.271 136.487 170.867 137.114 171.297 137.925C171.728 138.736 171.943 139.667 171.943 140.718C171.943 141.769 171.728 142.713 171.297 143.549C170.867 144.372 170.271 145.018 169.511 145.487C168.764 145.943 167.934 146.171 167.022 146.171C166.224 146.171 165.515 146.013 164.894 145.696C164.274 145.367 163.767 144.961 163.374 144.48V150.978H161.208V135.531H163.374V137.07ZM169.739 140.718C169.739 139.996 169.587 139.375 169.283 138.856C168.992 138.324 168.599 137.925 168.105 137.659C167.624 137.38 167.105 137.241 166.547 137.241C166.003 137.241 165.483 137.38 164.989 137.659C164.508 137.938 164.115 138.343 163.811 138.875C163.52 139.407 163.374 140.034 163.374 140.756C163.374 141.478 163.52 142.111 163.811 142.656C164.115 143.188 164.508 143.593 164.989 143.872C165.483 144.151 166.003 144.29 166.547 144.29C167.105 144.29 167.624 144.151 168.105 143.872C168.599 143.581 168.992 143.163 169.283 142.618C169.587 142.073 169.739 141.44 169.739 140.718ZM183.68 140.509C183.68 140.902 183.655 141.256 183.604 141.573H175.605C175.668 142.409 175.979 143.08 176.536 143.587C177.093 144.094 177.777 144.347 178.588 144.347C179.753 144.347 180.577 143.859 181.058 142.884H183.395C183.078 143.847 182.502 144.638 181.666 145.259C180.843 145.867 179.817 146.171 178.588 146.171C177.587 146.171 176.688 145.949 175.89 145.506C175.105 145.05 174.484 144.417 174.028 143.606C173.585 142.783 173.363 141.833 173.363 140.756C173.363 139.679 173.578 138.736 174.009 137.925C174.452 137.102 175.067 136.468 175.852 136.025C176.65 135.582 177.562 135.36 178.588 135.36C179.576 135.36 180.456 135.575 181.229 136.006C182.002 136.437 182.603 137.045 183.034 137.83C183.465 138.603 183.68 139.496 183.68 140.509ZM181.419 139.825C181.406 139.027 181.121 138.387 180.564 137.906C180.007 137.425 179.316 137.184 178.493 137.184C177.746 137.184 177.106 137.425 176.574 137.906C176.042 138.375 175.725 139.014 175.624 139.825H181.419ZM200.171 135.531L193.749 150.921H191.507L193.635 145.829L189.512 135.531H191.925L194.87 143.511L197.929 135.531H200.171ZM206.347 146.171C205.359 146.171 204.466 145.949 203.668 145.506C202.87 145.05 202.243 144.417 201.787 143.606C201.331 142.783 201.103 141.833 201.103 140.756C201.103 139.692 201.337 138.748 201.806 137.925C202.275 137.102 202.914 136.468 203.725 136.025C204.536 135.582 205.441 135.36 206.442 135.36C207.443 135.36 208.348 135.582 209.159 136.025C209.97 136.468 210.609 137.102 211.078 137.925C211.547 138.748 211.781 139.692 211.781 140.756C211.781 141.82 211.54 142.764 211.059 143.587C210.578 144.41 209.919 145.05 209.083 145.506C208.26 145.949 207.348 146.171 206.347 146.171ZM206.347 144.29C206.904 144.29 207.424 144.157 207.905 143.891C208.399 143.625 208.798 143.226 209.102 142.694C209.406 142.162 209.558 141.516 209.558 140.756C209.558 139.996 209.412 139.356 209.121 138.837C208.83 138.305 208.443 137.906 207.962 137.64C207.481 137.374 206.961 137.241 206.404 137.241C205.847 137.241 205.327 137.374 204.846 137.64C204.377 137.906 204.004 138.305 203.725 138.837C203.446 139.356 203.307 139.996 203.307 140.756C203.307 141.883 203.592 142.757 204.162 143.378C204.745 143.986 205.473 144.29 206.347 144.29ZM223.403 135.531V146H221.237V144.765C220.895 145.196 220.445 145.538 219.888 145.791C219.343 146.032 218.761 146.152 218.14 146.152C217.317 146.152 216.576 145.981 215.917 145.639C215.271 145.297 214.758 144.79 214.378 144.119C214.011 143.448 213.827 142.637 213.827 141.687V135.531H215.974V141.364C215.974 142.301 216.208 143.023 216.677 143.53C217.146 144.024 217.785 144.271 218.596 144.271C219.407 144.271 220.046 144.024 220.515 143.53C220.996 143.023 221.237 142.301 221.237 141.364V135.531H223.403ZM228.427 137.051C228.744 136.519 229.162 136.107 229.681 135.816C230.213 135.512 230.84 135.36 231.562 135.36V137.602H231.011C230.162 137.602 229.516 137.817 229.073 138.248C228.642 138.679 228.427 139.426 228.427 140.49V146H226.261V135.531H228.427V137.051ZM237.766 140.718C237.766 139.667 237.982 138.736 238.412 137.925C238.856 137.114 239.451 136.487 240.198 136.044C240.958 135.588 241.794 135.36 242.706 135.36C243.53 135.36 244.245 135.525 244.853 135.854C245.474 136.171 245.968 136.57 246.335 137.051V135.531H248.52V146H246.335V144.442C245.968 144.936 245.468 145.348 244.834 145.677C244.201 146.006 243.479 146.171 242.668 146.171C241.769 146.171 240.946 145.943 240.198 145.487C239.451 145.018 238.856 144.372 238.412 143.549C237.982 142.713 237.766 141.769 237.766 140.718ZM246.335 140.756C246.335 140.034 246.183 139.407 245.879 138.875C245.588 138.343 245.202 137.938 244.72 137.659C244.239 137.38 243.72 137.241 243.162 137.241C242.605 137.241 242.086 137.38 241.604 137.659C241.123 137.925 240.73 138.324 240.426 138.856C240.135 139.375 239.989 139.996 239.989 140.718C239.989 141.44 240.135 142.073 240.426 142.618C240.73 143.163 241.123 143.581 241.604 143.872C242.098 144.151 242.618 144.29 243.162 144.29C243.72 144.29 244.239 144.151 244.72 143.872C245.202 143.593 245.588 143.188 245.879 142.656C246.183 142.111 246.335 141.478 246.335 140.756ZM256.647 135.36C257.471 135.36 258.205 135.531 258.851 135.873C259.51 136.215 260.023 136.722 260.39 137.393C260.758 138.064 260.941 138.875 260.941 139.825V146H258.794V140.148C258.794 139.211 258.56 138.495 258.091 138.001C257.623 137.494 256.983 137.241 256.172 137.241C255.362 137.241 254.716 137.494 254.234 138.001C253.766 138.495 253.531 139.211 253.531 140.148V146H251.365V135.531H253.531V136.728C253.886 136.297 254.336 135.962 254.88 135.721C255.438 135.48 256.027 135.36 256.647 135.36ZM267.504 146.171C266.681 146.171 265.94 146.025 265.281 145.734C264.635 145.43 264.122 145.025 263.742 144.518C263.362 143.999 263.16 143.422 263.134 142.789H265.376C265.414 143.232 265.623 143.606 266.003 143.91C266.396 144.201 266.884 144.347 267.466 144.347C268.074 144.347 268.543 144.233 268.872 144.005C269.214 143.764 269.385 143.46 269.385 143.093C269.385 142.7 269.195 142.409 268.815 142.219C268.448 142.029 267.859 141.82 267.048 141.592C266.263 141.377 265.623 141.168 265.129 140.965C264.635 140.762 264.205 140.452 263.837 140.034C263.483 139.616 263.305 139.065 263.305 138.381C263.305 137.824 263.47 137.317 263.799 136.861C264.129 136.392 264.597 136.025 265.205 135.759C265.826 135.493 266.535 135.36 267.333 135.36C268.524 135.36 269.48 135.664 270.202 136.272C270.937 136.867 271.33 137.684 271.38 138.723H269.214C269.176 138.254 268.986 137.881 268.644 137.602C268.302 137.323 267.84 137.184 267.257 137.184C266.687 137.184 266.25 137.292 265.946 137.507C265.642 137.722 265.49 138.007 265.49 138.362C265.49 138.641 265.592 138.875 265.794 139.065C265.997 139.255 266.244 139.407 266.535 139.521C266.827 139.622 267.257 139.755 267.827 139.92C268.587 140.123 269.208 140.332 269.689 140.547C270.183 140.75 270.608 141.054 270.962 141.459C271.317 141.864 271.501 142.403 271.513 143.074C271.513 143.669 271.349 144.201 271.019 144.67C270.69 145.139 270.221 145.506 269.613 145.772C269.018 146.038 268.315 146.171 267.504 146.171ZM287.914 135.531L284.665 146H282.385L280.276 138.267L278.167 146H275.887L272.619 135.531H274.823L277.008 143.948L279.231 135.531H281.492L283.62 143.91L285.786 135.531H287.914ZM299.127 140.509C299.127 140.902 299.102 141.256 299.051 141.573H291.052C291.116 142.409 291.426 143.08 291.983 143.587C292.541 144.094 293.225 144.347 294.035 144.347C295.201 144.347 296.024 143.859 296.505 142.884H298.842C298.526 143.847 297.949 144.638 297.113 145.259C296.29 145.867 295.264 146.171 294.035 146.171C293.035 146.171 292.135 145.949 291.337 145.506C290.552 145.05 289.931 144.417 289.475 143.606C289.032 142.783 288.81 141.833 288.81 140.756C288.81 139.679 289.026 138.736 289.456 137.925C289.9 137.102 290.514 136.468 291.299 136.025C292.097 135.582 293.009 135.36 294.035 135.36C295.023 135.36 295.904 135.575 296.676 136.006C297.449 136.437 298.051 137.045 298.481 137.83C298.912 138.603 299.127 139.496 299.127 140.509ZM296.866 139.825C296.854 139.027 296.569 138.387 296.011 137.906C295.454 137.425 294.764 137.184 293.94 137.184C293.193 137.184 292.553 137.425 292.021 137.906C291.489 138.375 291.173 139.014 291.071 139.825H296.866ZM303.425 137.051C303.742 136.519 304.16 136.107 304.679 135.816C305.211 135.512 305.838 135.36 306.56 135.36V137.602H306.009C305.16 137.602 304.514 137.817 304.071 138.248C303.64 138.679 303.425 139.426 303.425 140.49V146H301.259V135.531H303.425V137.051Z" fill="#7E92A9"/>
</svg>
