<svg width="20" height="21" viewBox="0 0 20 21" fill="none" xmlns="http://www.w3.org/2000/svg">
<g clip-path="url(#clip0_607_415)">
<path d="M3.33301 5.5001C3.00447 5.50096 2.67902 5.43667 2.37549 5.31094C2.07196 5.1852 1.79637 5.00053 1.56468 4.7676L0.27801 3.6226C0.112913 3.47541 0.0130503 3.26866 0.000391621 3.04783C-0.0122671 2.82701 0.0633147 2.6102 0.21051 2.4451C0.357705 2.28 0.564456 2.18014 0.78528 2.16748C1.0061 2.15482 1.22291 2.23041 1.38801 2.3776L2.70884 3.55594C2.78446 3.64085 2.87665 3.70939 2.97974 3.75734C3.08283 3.80529 3.19465 3.83164 3.30831 3.83477C3.42196 3.83789 3.53506 3.81772 3.64063 3.7755C3.7462 3.73328 3.84202 3.6699 3.92218 3.58927L6.92551 0.730102C7.08701 0.586327 7.29806 0.510951 7.5141 0.519894C7.73013 0.528837 7.93424 0.6214 8.08329 0.778031C8.23235 0.934662 8.3147 1.1431 8.31293 1.35931C8.31117 1.57553 8.22544 1.78259 8.07384 1.93677L5.08301 4.78177C4.85282 5.01062 4.57978 5.19185 4.2795 5.31511C3.97923 5.43836 3.6576 5.50123 3.33301 5.5001ZM19.9997 3.83344C19.9997 3.61242 19.9119 3.40046 19.7556 3.24418C19.5993 3.0879 19.3874 3.0001 19.1663 3.0001H10.833C10.612 3.0001 10.4 3.0879 10.2438 3.24418C10.0875 3.40046 9.99968 3.61242 9.99968 3.83344C9.99968 4.05445 10.0875 4.26641 10.2438 4.42269C10.4 4.57897 10.612 4.66677 10.833 4.66677H19.1663C19.3874 4.66677 19.5993 4.57897 19.7556 4.42269C19.9119 4.26641 19.9997 4.05445 19.9997 3.83344ZM5.08301 11.4484L8.07384 8.60344C8.15732 8.52912 8.22499 8.43877 8.27284 8.33776C8.32068 8.23676 8.34772 8.12716 8.35235 8.01549C8.35697 7.90382 8.33908 7.79236 8.29975 7.68775C8.26042 7.58314 8.20044 7.4875 8.12339 7.40654C8.04634 7.32558 7.9538 7.26094 7.85126 7.21648C7.74872 7.17201 7.63828 7.14863 7.52652 7.14772C7.41476 7.14681 7.30396 7.16838 7.20071 7.21117C7.09746 7.25396 7.00387 7.31707 6.92551 7.39677L3.92551 10.2559C3.76687 10.4076 3.55584 10.4923 3.33634 10.4923C3.11685 10.4923 2.90582 10.4076 2.74718 10.2559L1.42218 8.9351C1.26501 8.7833 1.05451 8.69931 0.836009 8.70121C0.617512 8.70311 0.408501 8.79075 0.253994 8.94525C0.0994876 9.09976 0.0118468 9.30877 0.00994815 9.52727C0.00804947 9.74577 0.0920448 9.95627 0.243843 10.1134L1.56468 11.4343C2.03107 11.9008 2.66294 12.164 3.32259 12.1667C3.98224 12.1693 4.61621 11.9112 5.08634 11.4484H5.08301ZM19.9997 10.5001C19.9997 10.2791 19.9119 10.0671 19.7556 9.91085C19.5993 9.75457 19.3874 9.66677 19.1663 9.66677H10.833C10.612 9.66677 10.4 9.75457 10.2438 9.91085C10.0875 10.0671 9.99968 10.2791 9.99968 10.5001C9.99968 10.7211 10.0875 10.9331 10.2438 11.0894C10.4 11.2456 10.612 11.3334 10.833 11.3334H19.1663C19.3874 11.3334 19.5993 11.2456 19.7556 11.0894C19.9119 10.9331 19.9997 10.7211 19.9997 10.5001ZM5.08301 18.1151L8.07051 15.2701C8.15399 15.1958 8.22166 15.1054 8.26951 15.0044C8.31735 14.9034 8.34439 14.7938 8.34901 14.6822C8.35363 14.5705 8.33575 14.459 8.29641 14.3544C8.25708 14.2498 8.19711 14.1542 8.12006 14.0732C8.04301 13.9922 7.95046 13.9276 7.84792 13.8831C7.74539 13.8387 7.63495 13.8153 7.52319 13.8144C7.41143 13.8135 7.30063 13.8351 7.19737 13.8778C7.09412 13.9206 7.00054 13.9837 6.92218 14.0634L3.92218 16.9226C3.84202 17.0032 3.7462 17.0666 3.64063 17.1088C3.53506 17.1511 3.42196 17.1712 3.30831 17.1681C3.19465 17.165 3.08283 17.1386 2.97974 17.0907C2.87665 17.0427 2.78446 16.9742 2.70884 16.8893L1.38801 15.7109C1.22291 15.5637 1.0061 15.4882 0.78528 15.5008C0.564456 15.5135 0.357705 15.6133 0.21051 15.7784C0.0633147 15.9435 -0.0122671 16.1603 0.000391621 16.3812C0.0130503 16.602 0.112913 16.8087 0.27801 16.9559L1.56468 18.1009C2.03107 18.5674 2.66294 18.8307 3.32259 18.8334C3.98224 18.836 4.61621 18.5778 5.08634 18.1151H5.08301ZM19.9997 17.1668C19.9997 16.9458 19.9119 16.7338 19.7556 16.5775C19.5993 16.4212 19.3874 16.3334 19.1663 16.3334H10.833C10.612 16.3334 10.4 16.4212 10.2438 16.5775C10.0875 16.7338 9.99968 16.9458 9.99968 17.1668C9.99968 17.3878 10.0875 17.5997 10.2438 17.756C10.4 17.9123 10.612 18.0001 10.833 18.0001H19.1663C19.3874 18.0001 19.5993 17.9123 19.7556 17.756C19.9119 17.5997 19.9997 17.3878 19.9997 17.1668Z" fill="#7D9DB5"/>
</g>
<defs>
<clipPath id="clip0_607_415">
<rect width="20" height="20" fill="white" transform="translate(0 0.5)"/>
</clipPath>
</defs>
</svg>
