<svg width="124" height="26" viewBox="0 0 124 26" fill="none" xmlns="http://www.w3.org/2000/svg">
<path d="M0.84 4.052H6.3V22H8.26V4.052H13.692V2.428H0.84V4.052ZM15.8909 14.328C15.8909 19.116 18.9989 22.224 23.1709 22.224C26.2229 22.224 28.3509 20.572 29.2469 18.612V22H31.2069V6.712H29.2469V10.072C28.3789 8.14 26.2789 6.488 23.1989 6.488C18.9989 6.488 15.8909 9.54 15.8909 14.328ZM29.2469 14.356C29.2469 18.164 26.6989 20.516 23.5629 20.516C20.3429 20.516 17.8789 18.192 17.8789 14.328C17.8789 10.436 20.3429 8.196 23.5629 8.196C26.6989 8.196 29.2469 10.548 29.2469 14.356ZM35.6814 22H37.6414V15.14L43.9414 22H46.6014L39.2934 14.328L46.5454 6.712H43.8014L37.6414 13.544V1.28H35.6814V22ZM49.1345 22H51.0945V6.712H49.1345V22ZM50.1145 3.828C50.8985 3.828 51.5425 3.212 51.5425 2.372C51.5425 1.532 50.8985 0.943999 50.1145 0.943999C49.3305 0.943999 48.6865 1.532 48.6865 2.372C48.6865 3.212 49.3305 3.828 50.1145 3.828ZM56.653 12.2C56.653 7.076 59.985 3.94 64.325 3.94C68.665 3.94 71.997 7.076 71.997 12.2C71.997 17.324 68.665 20.488 64.325 20.488C59.985 20.488 56.653 17.324 56.653 12.2ZM74.013 12.2C74.013 6.348 69.841 2.204 64.325 2.204C58.837 2.204 54.637 6.348 54.637 12.2C54.637 18.08 58.837 22.196 64.325 22.196C65.361 22.196 66.369 22.056 67.321 21.776L71.689 25.836H74.321L69.085 21.02C72.081 19.396 74.013 16.204 74.013 12.2ZM90.8707 6.712H88.9107V15.028C88.9107 18.752 86.9227 20.544 84.0667 20.544C81.2667 20.544 79.4187 18.808 79.4187 15.42V6.712H77.4867V15.644C77.4867 20.124 80.2307 22.252 83.7027 22.252C85.9707 22.252 87.9867 21.244 88.9107 19.312V22H90.8707V6.712ZM95.3455 22H97.3055V6.712H95.3455V22ZM96.3255 3.828C97.1095 3.828 97.7535 3.212 97.7535 2.372C97.7535 1.532 97.1095 0.943999 96.3255 0.943999C95.5415 0.943999 94.8975 1.532 94.8975 2.372C94.8975 3.212 95.5415 3.828 96.3255 3.828ZM110.648 6.712H100.68V8.336H108.408L100.54 20.376V22H110.788V20.376H102.78L110.648 8.336V6.712ZM123.007 6.712H113.039V8.336H120.767L112.899 20.376V22H123.147V20.376H115.139L123.007 8.336V6.712Z" fill="#1F8AF4"/>
</svg>
